Tidybiology Final Project
…
#variation EDA
genome %>% mutate(percent_var = variations/basepairs) %>% select(chromosome, percent_var) %>% arrange(percent_var)

## # A tibble: 24 x 2
##    chromosome percent_var
##    <fct>            <dbl>
##  1 Y              0.00370
##  2 X              0.0369 
##  3 22             0.0420 
##  4 21             0.0439 
##  5 15             0.0443 
##  6 13             0.0444 
##  7 14             0.0455 
##  8 9              0.0476 
##  9 1              0.0488 
## 10 18             0.0502 
## #  with 14 more rows
…
